Lab11/pm.vcd
$date
	Sun Apr  8 18:36:38 2018
$end
$version
	Icarus Verilog
$end
$timescale
	1s
$end
$scope module test $end
$var wire 32 ! PC [31:0] $end
$var reg 1 " clk $end
$var reg 1 # done $end
$var reg 1 $ reset $end
$var integer 32 % i [31:0] $end
$scope module pm $end
$var wire 1 & ForwardA $end
$var wire 1 ' ForwardB $end
$var wire 1 ( PCSrc $end
$var wire 1 " clk $end
$var wire 1 ) flush $end
$var wire 1 $ reset $end
$var wire 1 * stall $end
$var wire 1 + zero $end
$var wire 5 , wr_regnum_MW [4:0] $end
$var wire 5 - wr_regnum [4:0] $end
$var wire 32 . wr_data [31:0] $end
$var wire 5 / rt [4:0] $end
$var wire 5 0 rs [4:0] $end
$var wire 32 1 rd2_data_new2 [31:0] $end
$var wire 32 2 rd2_data_new [31:0] $end
$var wire 32 3 rd2_data [31:0] $end
$var wire 32 4 rd1_data_new [31:0] $end
$var wire 32 5 rd1_data [31:0] $end
$var wire 5 6 rd [4:0] $end
$var wire 6 7 opcode [5:0] $end
$var wire 30 8 next_PC_old [31:2] $end
$var wire 30 9 next_PC [31:2] $end
$var wire 32 : load_data [31:0] $end
$var wire 32 ; inst_old [31:0] $end
$var wire 32 < inst [31:0] $end
$var wire 32 = imm [31:0] $end
$var wire 6 > funct [5:0] $end
$var wire 32 ? alu_out_data_old [31:0] $end
$var wire 32 @ alu_out_data [31:0] $end
$var wire 1 A RegWrite_new $end
$var wire 1 B RegWrite $end
$var wire 1 C RegDst $end
$var wire 30 D PC_target [31:2] $end
$var wire 30 E PC_plus4_new [31:2] $end
$var wire 30 F PC_plus4 [31:2] $end
$var wire 30 G PC_for_stalling [31:2] $end
$var wire 32 H PC [31:0] $end
$var wire 1 I MemWrite_new $end
$var wire 1 J MemWrite $end
$var wire 1 K MemToReg_MW $end
$var wire 1 L MemToReg $end
$var wire 1 M MemRead_new $end
$var wire 1 N MemRead $end
$var wire 32 O B_data [31:0] $end
$var wire 1 P BEQ $end
$var wire 1 Q ALUSrc $end
$var wire 3 R ALUOp [2:0] $end
$scope module DEMW1 $end
$var wire 1 " clk $end
$var wire 1 S enable $end
$var wire 1 $ reset $end
$var wire 32 T d [31:0] $end
$var reg 32 U q [31:0] $end
$upscope $end
$scope module DEMW2 $end
$var wire 1 " clk $end
$var wire 1 V enable $end
$var wire 1 ) reset $end
$var wire 32 W d [31:0] $end
$var reg 32 X q [31:0] $end
$upscope $end
$scope module DEMW4 $end
$var wire 1 " clk $end
$var wire 1 Y enable $end
$var wire 1 $ reset $end
$var wire 5 Z d [4:0] $end
$var reg 5 [ q [4:0] $end
$upscope $end
$scope module IFDE1 $end
$var wire 1 " clk $end
$var wire 1 \ enable $end
$var wire 1 $ reset $end
$var wire 30 ] d [29:0] $end
$var reg 30 ^ q [29:0] $end
$upscope $end
$scope module IFDE2 $end
$var wire 1 " clk $end
$var wire 1 _ enable $end
$var wire 1 $ reset $end
$var wire 32 ` d [31:0] $end
$var reg 32 a q [31:0] $end
$upscope $end
$scope module PC_reg $end
$var wire 1 " clk $end
$var wire 1 b enable $end
$var wire 1 $ reset $end
$var wire 30 c d [29:0] $end
$var reg 30 d q [29:0] $end
$upscope $end
$scope module alu $end
$var wire 32 e out [31:0] $end
$var wire 1 + zero $end
$var wire 32 f inB [31:0] $end
$var wire 32 g inA [31:0] $end
$var wire 3 h control [2:0] $end
$upscope $end
$scope module branch_mux $end
$var wire 30 i out [29:0] $end
$var wire 1 ( sel $end
$var wire 30 j temp1 [29:0] $end
$var wire 30 k temp2 [29:0] $end
$var wire 30 l B [29:0] $end
$var wire 30 m A [29:0] $end
$upscope $end
$scope module controlMR $end
$var wire 1 " clk $end
$var wire 1 n enable $end
$var wire 1 $ reset $end
$var wire 1 N d $end
$var reg 1 M q $end
$upscope $end
$scope module controlMTR $end
$var wire 1 " clk $end
$var wire 1 o enable $end
$var wire 1 $ reset $end
$var wire 1 L d $end
$var reg 1 K q $end
$upscope $end
$scope module controlMW $end
$var wire 1 " clk $end
$var wire 1 p enable $end
$var wire 1 $ reset $end
$var wire 1 J d $end
$var reg 1 I q $end
$upscope $end
$scope module controlRW $end
$var wire 1 " clk $end
$var wire 1 q enable $end
$var wire 1 $ reset $end
$var wire 1 B d $end
$var reg 1 A q $end
$upscope $end
$scope module data_memory $end
$var wire 32 r addr [31:0] $end
$var wire 1 " clk $end
$var wire 32 s d_out [31:0] $end
$var wire 32 t data_in [31:0] $end
$var wire 32 u data_out [31:0] $end
$var wire 32 v internal_data_in [31:0] $end
$var wire 1 M mem_read $end
$var wire 1 I mem_write $end
$var wire 1 $ reset $end
$var wire 1 w valid_address $end
$var wire 19 x index [18:0] $end
$var integer 32 y i [31:0] $end
$upscope $end
$scope module decode $end
$var wire 1 Q ALUSrc $end
$var wire 1 L MemToReg $end
$var wire 1 C RegDst $end
$var wire 1 B RegWrite $end
$var wire 6 z funct [5:0] $end
$var wire 1 { nop $end
$var wire 6 | opcode [5:0] $end
$var wire 1 } op0 $end
$var wire 1 J MemWrite $end
$var wire 1 N MemRead $end
$var wire 1 P BEQ $end
$var wire 3 ~ ALUOp [2:0] $end
$upscope $end
$scope module forwarda $end
$var wire 32 !" B [31:0] $end
$var wire 32 "" out [31:0] $end
$var wire 1 & sel $end
$var wire 32 #" temp1 [31:0] $end
$var wire 32 $" temp2 [31:0] $end
$var wire 32 %" A [31:0] $end
$upscope $end
$scope module forwardb $end
$var wire 32 &" B [31:0] $end
$var wire 32 '" out [31:0] $end
$var wire 1 ' sel $end
$var wire 32 (" temp1 [31:0] $end
$var wire 32 )" temp2 [31:0] $end
$var wire 32 *" A [31:0] $end
$upscope $end
$scope module imem $end
$var wire 30 +" addr [29:0] $end
$var wire 32 ," data [31:0] $end
$var reg 32 -" i [31:0] $end
$upscope $end
$scope module imm_mux $end
$var wire 32 ." A [31:0] $end
$var wire 32 /" B [31:0] $end
$var wire 32 0" out [31:0] $end
$var wire 1 Q sel $end
$var wire 32 1" temp1 [31:0] $end
$var wire 32 2" temp2 [31:0] $end
$upscope $end
$scope module next_PC_adder $end
$var wire 30 3" in1 [29:0] $end
$var wire 30 4" in2 [29:0] $end
$var wire 30 5" out [29:0] $end
$upscope $end
$scope module rd_mux $end
$var wire 5 6" A [4:0] $end
$var wire 5 7" B [4:0] $end
$var wire 5 8" out [4:0] $end
$var wire 1 C sel $end
$var wire 5 9" temp1 [4:0] $end
$var wire 5 :" temp2 [4:0] $end
$upscope $end
$scope module rf $end
$var wire 1 " clock $end
$var wire 32 ;" internal_rdData [31:0] $end
$var wire 5 <" rdNum [4:0] $end
$var wire 1 A rdWriteEnable $end
$var wire 1 $ reset $end
$var wire 32 =" rsData [31:0] $end
$var wire 5 >" rsNum [4:0] $end
$var wire 32 ?" rtData [31:0] $end
$var wire 5 @" rtNum [4:0] $end
$var wire 32 A" rdData [31:0] $end
$var integer 32 B" i [31:0] $end
$upscope $end
$scope module st $end
$var wire 30 C" A [29:0] $end
$var wire 30 D" B [29:0] $end
$var wire 30 E" out [29:0] $end
$var wire 1 * sel $end
$var wire 30 F" temp1 [29:0] $end
$var wire 30 G" temp2 [29:0] $end
$upscope $end
$scope module target_PC_adder $end
$var wire 30 H" in1 [29:0] $end
$var wire 30 I" in2 [29:0] $end
$var wire 30 J" out [29:0] $end
$upscope $end
$scope module wb_mux $end
$var wire 32 K" A [31:0] $end
$var wire 32 L" B [31:0] $end
$var wire 32 M" out [31:0] $end
$var wire 1 K sel $end
$var wire 32 N" temp1 [31:0] $end
$var wire 32 O" temp2 [31:0] $end
$upscope $end
$upscope $end
$upscope $end
$scope module test $end
$scope module pm $end
$scope module rf $end
$var reg 32 P" \r[0] [31:0] $end
$upscope $end
$upscope $end
$upscope $end
$scope module test $end
$scope module pm $end
$scope module rf $end
$var reg 32 Q" \r[1] [31:0] $end
$upscope $end
$upscope $end
$upscope $end
$scope module test $end
$scope module pm $end
$scope module rf $end
$var reg 32 R" \r[2] [31:0] $end
$upscope $end
$upscope $end
$upscope $end
$scope module test $end
$scope module pm $end
$scope module rf $end
$var reg 32 S" \r[3] [31:0] $end
$upscope $end
$upscope $end
$upscope $end
$scope module test $end
$scope module pm $end
$scope module rf $end
$var reg 32 T" \r[4] [31:0] $end
$upscope $end
$upscope $end
$upscope $end
$scope module test $end
$scope module pm $end
$scope module rf $end
$var reg 32 U" \r[5] [31:0] $end
$upscope $end
$upscope $end
$upscope $end
$scope module test $end
$scope module pm $end
$scope module rf $end
$var reg 32 V" \r[6] [31:0] $end
$upscope $end
$upscope $end
$upscope $end
$scope module test $end
$scope module pm $end
$scope module rf $end
$var reg 32 W" \r[7] [31:0] $end
$upscope $end
$upscope $end
$upscope $end
$scope module test $end
$scope module pm $end
$scope module rf $end
$var reg 32 X" \r[8] [31:0] $end
$upscope $end
$upscope $end
$upscope $end
$scope module test $end
$scope module pm $end
$scope module rf $end
$var reg 32 Y" \r[9] [31:0] $end
$upscope $end
$upscope $end
$upscope $end
$scope module test $end
$scope module pm $end
$scope module rf $end
$var reg 32 Z" \r[10] [31:0] $end
$upscope $end
$upscope $end
$upscope $end
$scope module test $end
$scope module pm $end
$scope module rf $end
$var reg 32 [" \r[11] [31:0] $end
$upscope $end
$upscope $end
$upscope $end
$scope module test $end
$scope module pm $end
$scope module rf $end
$var reg 32 \" \r[12] [31:0] $end
$upscope $end
$upscope $end
$upscope $end
$scope module test $end
$scope module pm $end
$scope module rf $end
$var reg 32 ]" \r[13] [31:0] $end
$upscope $end
$upscope $end
$upscope $end
$scope module test $end
$scope module pm $end
$scope module rf $end
$var reg 32 ^" \r[14] [31:0] $end
$upscope $end
$upscope $end
$upscope $end
$scope module test $end
$scope module pm $end
$scope module rf $end
$var reg 32 _" \r[15] [31:0] $end
$upscope $end
$upscope $end
$upscope $end
$scope module test $end
$scope module pm $end
$scope module rf $end
$var reg 32 `" \r[16] [31:0] $end
$upscope $end
$upscope $end
$upscope $end
$scope module test $end
$scope module pm $end
$scope module rf $end
$var reg 32 a" \r[17] [31:0] $end
$upscope $end
$upscope $end
$upscope $end
$scope module test $end
$scope module pm $end
$scope module rf $end
$var reg 32 b" \r[18] [31:0] $end
$upscope $end
$upscope $end
$upscope $end
$scope module test $end
$scope module pm $end
$scope module rf $end
$var reg 32 c" \r[19] [31:0] $end
$upscope $end
$upscope $end
$upscope $end
$scope module test $end
$scope module pm $end
$scope module rf $end
$var reg 32 d" \r[20] [31:0] $end
$upscope $end
$upscope $end
$upscope $end
$scope module test $end
$scope module pm $end
$scope module rf $end
$var reg 32 e" \r[21] [31:0] $end
$upscope $end
$upscope $end
$upscope $end
$scope module test $end
$scope module pm $end
$scope module rf $end
$var reg 32 f" \r[22] [31:0] $end
$upscope $end
$upscope $end
$upscope $end
$scope module test $end
$scope module pm $end
$scope module rf $end
$var reg 32 g" \r[23] [31:0] $end
$upscope $end
$upscope $end
$upscope $end
$scope module test $end
$scope module pm $end
$scope module rf $end
$var reg 32 h" \r[24] [31:0] $end
$upscope $end
$upscope $end
$upscope $end
$scope module test $end
$scope module pm $end
$scope module rf $end
$var reg 32 i" \r[25] [31:0] $end
$upscope $end
$upscope $end
$upscope $end
$scope module test $end
$scope module pm $end
$scope module rf $end
$var reg 32 j" \r[26] [31:0] $end
$upscope $end
$upscope $end
$upscope $end
$scope module test $end
$scope module pm $end
$scope module rf $end
$var reg 32 k" \r[27] [31:0] $end
$upscope $end
$upscope $end
$upscope $end
$scope module test $end
$scope module pm $end
$scope module rf $end
$var reg 32 l" \r[28] [31:0] $end
$upscope $end
$upscope $end
$upscope $end
$scope module test $end
$scope module pm $end
$scope module rf $end
$var reg 32 m" \r[29] [31:0] $end
$upscope $end
$upscope $end
$upscope $end
$scope module test $end
$scope module pm $end
$scope module rf $end
$var reg 32 n" \r[30] [31:0] $end
$upscope $end
$upscope $end
$upscope $end
$scope module test $end
$scope module pm $end
$scope module rf $end
$var reg 32 o" \r[31] [31:0] $end
$upscope $end
$upscope $end
$upscope $end
$enddefinitions $end
#0
$dumpvars
b10000000000010000000000000000 o"
b10000000000010000000000000000 n"
b10000000000010000000000000000 m"
b10000000000010000000000000000 l"
b10000000000010000000000000000 k"
b10000000000010000000000000000 j"
b10000000000010000000000000000 i"
b10000000000010000000000000000 h"
b10000000000010000000000000000 g"
b10000000000010000000000000000 f"
b10000000000010000000000000000 e"
b10000000000010000000000000000 d"
b10000000000010000000000000000 c"
b10000000000010000000000000000 b"
b10000000000010000000000000000 a"
b10000000000010000000000000000 `"
b10000000000010000000000000000 _"
b10000000000010000000000000000 ^"
b10000000000010000000000000000 ]"
b10000000000010000000000000000 \"
b10000000000010000000000000000 ["
b10000000000010000000000000000 Z"
b10000000000010000000000000000 Y"
b10000000000010000000000000000 X"
b10000000000010000000000000000 W"
b10000000000010000000000000000 V"
b10000000000010000000000000000 U"
b10000000000010000000000000000 T"
b10000000000010000000000000000 S"
b10000000000010000000000000000 R"
b10000000000010000000000000000 Q"
b0 P"
bx O"
bx N"
bx M"
bx L"
bx K"
bx J"
bx I"
bx H"
bx G"
bx F"
bx E"
bx D"
bx C"
b100000 B"
bx A"
bx @"
bx ?"
bx >"
bx ="
bx <"
bx ;"
bx :"
bx 9"
bx 8"
bx 7"
bx 6"
bx 5"
b1 4"
bx 3"
bx 2"
bx 1"
bx 0"
bx /"
bx ."
b100000000 -"
bx ,"
bx +"
bx *"
bx )"
bx ("
bx '"
bx &"
bx %"
bx $"
bx #"
bx ""
bx !"
bx ~
x}
bx |
x{
bx z
b1000000000000000000 y
bx x
xw
bx v
bx u
bx t
bx s
bx r
1q
1p
1o
1n
bx m
bx l
bx k
bx j
bx i
bx h
bx g
bx f
bx e
bx d
bx c
1b
bx a
bx `
1_
bx ^
bx ]
1\
bx [
bx Z
1Y
bx X
bx W
1V
bx U
bx T
1S
bx R
xQ
xP
bx O
xN
xM
xL
xK
xJ
xI
bx00 H
bx G
bx F
bx E
bx D
xC
xB
xA
bx @
bx ?
bx >
bx =
bx <
bx ;
bx :
bx 9
bx 8
bx 7
bx 6
bx 5
bx 4
bx 3
bx 2
bx 1
bx 0
bx /
bx .
bx -
bx ,
x+
x*
1)
x(
x'
x&
b100000 %
1$
0#
0"
bx00 !
$end
#6
b0 -
b0 Z
b0 8"
b0 G"
b0 :"
0*
b0 9"
b0 I"
b0 2"
b11011110101011011011111011101111 s
b0 x
b0 .
b0 A"
b0 M"
0'
0&
b100000000000000000000 3"
b100000000000000000000 +"
b100000000000000000000 G
b100000000000000000000 D"
b0 >
b0 z
1}
b0 7
b0 |
b0 6
b0 7"
b0 /
b0 6"
b0 @"
b0 0
b0 >"
b0 =
b0 /"
0w
b0 $"
b0 )"
b0 N"
b0 O"
b10000000000000000000000 H
b10000000000000000000000 !
b100000000000000000000 d
b0 E
b0 ^
b0 H"
b0 <
b0 a
b0 @
b0 U
b0 r
b0 !"
b0 &"
b0 K"
b0 1
b0 X
b0 t
b0 ,
b0 [
b0 <"
0K
0A
0M
0I
1"
#7
b0 O
b0 f
b0 0"
b0 1"
b0 2
b0 W
b0 '"
b0 ."
b0 4
b0 g
b0 ""
x)
b0 ("
b0 #"
b0 ;"
b0 3
b0 *"
b0 ?"
b0 5
b0 %"
b0 ="
0$
#8
b100000000000000000001 9
b100000000000000000001 c
b100000000000000000001 E"
b100000000000000000001 F"
0)
0B
b100000000000000000001 8
b100000000000000000001 i
b100000000000000000001 C"
b0 k
b100000000000000000001 j
0(
1C
0Q
1+
b0 R
b0 h
b0 ~
1{
b0 D
b0 l
b0 J"
b100000000000000000001 F
b100000000000000000001 ]
b100000000000000000001 m
b100000000000000000001 5"
0P
0L
0N
0J
#9
b0 ?
b0 T
b0 e
b10001110100000100000000000000000 ;
b10001110100000100000000000000000 `
b10001110100000100000000000000000 ,"
b0 :
b0 u
b0 L"
b0 v
#12
0"
#18
0}
b100011 7
b100011 |
b10 /
b10 6"
b10 @"
b10100 0
b10100 >"
b100000000000000000001 3"
b100000000000000000001 +"
b100000000000000000001 G
b100000000000000000001 D"
b10001110100000100000000000000000 <
b10001110100000100000000000000000 a
b100000000000000000001 E
b100000000000000000001 ^
b100000000000000000001 H"
b10000000000000000000100 H
b10000000000000000000100 !
b100000000000000000001 d
1"
#19
b10000000000010000000000000000 O
b10000000000010000000000000000 f
b10000000000010000000000000000 0"
b10000000000010000000000000000 1"
b10000000000010000000000000000 2
b10000000000010000000000000000 W
b10000000000010000000000000000 '"
b10000000000010000000000000000 ."
b10000000000010000000000000000 4
b10000000000010000000000000000 g
b10000000000010000000000000000 ""
b10000000000010000000000000000 ("
b10000000000010000000000000000 #"
b10000000000010000000000000000 3
b10000000000010000000000000000 *"
b10000000000010000000000000000 ?"
b10000000000010000000000000000 5
b10000000000010000000000000000 %"
b10000000000010000000000000000 ="
#20
b100000000000000000010 9
b100000000000000000010 c
b100000000000000000010 E"
b10 -
b10 Z
b10 8"
b0 O
b0 f
b0 0"
b100000000000000000010 F"
1B
b10 9"
b0 1"
b100000000000000000010 8
b100000000000000000010 i
b100000000000000000010 C"
0C
1Q
b100000000000000000010 j
0{
1L
1N
b100000000000000000010 F
b100000000000000000010 ]
b100000000000000000010 m
b100000000000000000010 5"
b100000000000000000001 D
b100000000000000000001 l
b100000000000000000001 J"
#21
0+
b10001110100000110000000000000100 ;
b10001110100000110000000000000100 `
b10001110100000110000000000000100 ,"
#22
b10000000000010000000000000000 ?
b10000000000010000000000000000 T
b10000000000010000000000000000 e
#24
0"
#30
b100000000000000000010 F"
b0 G"
0)
0*
b11 -
b11 Z
b11 8"
b100 O
b100 f
b100 0"
b10000000000010000000000000000 ("
b0 )"
b11 9"
b100 I"
b100 2"
b1 s
b100000000000000 x
0'
b100000000000000000010 3"
b100000000000000000010 +"
b100000000000000000010 G
b100000000000000000010 D"
b100 >
b100 z
b11 /
b11 6"
b11 @"
b100 =
b100 /"
1w
b10000000000000000001000 H
b10000000000000000001000 !
b100000000000000000010 d
b100000000000000000010 E
b100000000000000000010 ^
b100000000000000000010 H"
b10001110100000110000000000000100 <
b10001110100000110000000000000100 a
b10000000000010000000000000000 @
b10000000000010000000000000000 U
b10000000000010000000000000000 r
b10000000000010000000000000000 !"
b10000000000010000000000000000 &"
b10000000000010000000000000000 K"
b10000000000010000000000000000 1
b10000000000010000000000000000 X
b10000000000010000000000000000 t
b10 ,
b10 [
b10 <"
1K
1A
1M
1"
#32
b100000000000000000011 9
b100000000000000000011 c
b100000000000000000011 E"
b100000000000000000011 F"
b100000000000000000011 8
b100000000000000000011 i
b100000000000000000011 C"
b100000000000000000011 j
b10000000000010000000000000100 ?
b10000000000010000000000000100 T
b10000000000010000000000000100 e
b100000000000000000011 F
b100000000000000000011 ]
b100000000000000000011 m
b100000000000000000011 5"
b100000000000000000110 D
b100000000000000000110 l
b100000000000000000110 J"
#33
b1 .
b1 A"
b1 M"
b1 O"
b11000100010000000100000 ;
b11000100010000000100000 `
b11000100010000000100000 ,"
b1 :
b1 u
b1 L"
b10000000000010000000000000000 v
#34
b1 ;"
#36
0"
#42
b0 F"
b100000000000000000011 G"
1)
b10000000000010000000000000100 4
b10000000000010000000000000100 g
b10000000000010000000000000100 ""
1*
b0 #"
b10000000000010000000000000100 $"
b10 -
b10 Z
b10 8"
1&
b10000000100000 O
b10000000100000 f
b10000000100000 0"
b11111111 s
b100000000000001 x
b10 9"
b10000000100000 I"
b10000000100000 2"
b100000 >
b100000 z
1}
b0 7
b0 |
b100 6
b100 7"
b10 /
b10 6"
b10 @"
b11 0
b11 >"
b10000000100000 =
b10000000100000 /"
b100000000000000000011 3"
b100000000000000000011 +"
b100000000000000000011 G
b100000000000000000011 D"
b11 ,
b11 [
b11 <"
b10000000000010000000000000100 @
b10000000000010000000000000100 U
b10000000000010000000000000100 r
b10000000000010000000000000100 !"
b10000000000010000000000000100 &"
b10000000000010000000000000100 K"
b11000100010000000100000 <
b11000100010000000100000 a
b100000000000000000011 E
b100000000000000000011 ^
b100000000000000000011 H"
b1 R"
b10000000000000000001100 H
b10000000000000000001100 !
b100000000000000000011 d
1"
#43
b1 2
b1 W
b1 '"
b1 ."
b1 ("
b1 3
b1 *"
b1 ?"
#44
b100 -
b100 Z
b100 8"
b1 O
b1 f
b1 0"
b0 9"
b100 :"
b1 1"
b0 2"
b100000000000000000100 8
b100000000000000000100 i
b100000000000000000100 C"
1C
0Q
b100000000000000000100 j
b10000000000010010000000100100 ?
b10000000000010010000000100100 T
b10000000000010010000000100100 e
0L
0N
b100000000000000000100 F
b100000000000000000100 ]
b100000000000000000100 m
b100000000000000000100 5"
b100000010000000100011 D
b100000010000000100011 l
b100000010000000100011 J"
#45
b11111111 .
b11111111 A"
b11111111 M"
b11111111 O"
b11111111 :
b11111111 u
b11111111 L"
b10001110100001010000000000001000 ;
b10001110100001010000000000001000 `
b10001110100001010000000000001000 ,"
#46
b11111111 ;"
b10000000000010000000000000101 ?
b10000000000010000000000000101 T
b10000000000010000000000000101 e
#48
0"
#54
b100000000000000000100 9
b100000000000000000100 c
b100000000000000000100 E"
b100000000000000000100 F"
b0 G"
0)
b0 -
b0 Z
b0 8"
b10000000000010000000000000000 #"
0*
b0 :"
b1000 I"
b10000000000010000000000000000 4
b10000000000010000000000000000 g
b10000000000010000000000000000 ""
0&
b10000000000010000000000000101 .
b10000000000010000000000000101 A"
b10000000000010000000000000101 M"
b1000 >
b1000 z
0}
b100011 7
b100011 |
b0 6
b0 7"
b101 /
b101 6"
b101 @"
b10100 0
b10100 >"
b1000 =
b1000 /"
b0 $"
b10000000000010000000000000101 N"
b0 O"
b11111111 S"
b100000000000000000100 E
b100000000000000000100 ^
b100000000000000000100 H"
b10001110100001010000000000001000 <
b10001110100001010000000000001000 a
b10000000000010000000000000101 @
b10000000000010000000000000101 U
b10000000000010000000000000101 r
b10000000000010000000000000101 !"
b10000000000010000000000000101 &"
b10000000000010000000000000101 K"
b0 1
b0 X
b0 t
b100 ,
b100 [
b100 <"
0K
0M
1"
#55
b10000000000010000000000000000 O
b10000000000010000000000000000 f
b10000000000010000000000000000 0"
b10000000000010000000000000000 1"
b10000000000010000000000000000 2
b10000000000010000000000000000 W
b10000000000010000000000000000 '"
b10000000000010000000000000000 ."
b10000000000010000000000000000 ("
b10000000000010000000000000101 ;"
b10000000000010000000000000000 3
b10000000000010000000000000000 *"
b10000000000010000000000000000 ?"
#56
b101 -
b101 Z
b101 8"
b1000 O
b1000 f
b1000 0"
b101 9"
b0 1"
b1000 2"
0C
1Q
1+
1L
1N
b100000000000000001100 D
b100000000000000001100 l
b100000000000000001100 J"
#57
0+
b0 :
b0 u
b0 L"
b0 v
#58
b10000000000010000000000001000 ?
b10000000000010000000000001000 T
b10000000000010000000000001000 e
#60
0"
#66
b0 F"
b100000000000000000100 G"
1)
b10000000000010000000000001000 2
b10000000000010000000000001000 W
b10000000000010000000000001000 '"
b10000000000010000000000001000 ."
1*
b0 ("
b10000000000010000000000001000 )"
1'
b10000000000 s
b100000000000010 x
b0 .
b0 A"
b0 M"
b0 N"
b100000000000000000100 3"
b100000000000000000100 +"
b100000000000000000100 G
b100000000000000000100 D"
1M
1K
b101 ,
b101 [
b101 <"
b10000000000010000000000000000 1
b10000000000010000000000000000 X
b10000000000010000000000000000 t
b10000000000010000000000001000 @
b10000000000010000000000001000 U
b10000000000010000000000001000 r
b10000000000010000000000001000 !"
b10000000000010000000000001000 &"
b10000000000010000000000001000 K"
b10000000000010000000000000101 T"
b10000000000000000010000 H
b10000000000000000010000 !
b100000000000000000100 d
1"
#67
b0 ;"
#68
b100000000000000000101 8
b100000000000000000101 i
b100000000000000000101 C"
b100000000000000000101 j
b100000000000000000101 F
b100000000000000000101 ]
b100000000000000000101 m
b100000000000000000101 5"
#69
b10000000000 .
b10000000000 A"
b10000000000 M"
b10000000000 O"
b11001010011000000100000 ;
b11001010011000000100000 `
b11001010011000000100000 ,"
b10000000000 :
b10000000000 u
b10000000000 L"
b10000000000010000000000000000 v
#70
b10000000000 ;"
#72
0"
#78
b11000000100000 O
b11000000100000 f
b11000000100000 0"
b11000000100000 I"
b11000000100000 2"
b100000 >
b100000 z
1}
b0 7
b0 |
b110 6
b110 7"
b11 0
b11 >"
b11000000100000 =
b11000000100000 /"
b10000000000 U"
b100000000000000000101 E
b100000000000000000101 ^
b100000000000000000101 H"
b11001010011000000100000 <
b11001010011000000100000 a
b0 1
b0 X
b0 t
1"
#79
b11111111 4
b11111111 g
b11111111 ""
b11111111 #"
b11111111 5
b11111111 %"
b11111111 ="
b10000000000 3
b10000000000 *"
b10000000000 ?"
#80
b110 -
b110 Z
b110 8"
b10000000000010000000000001000 O
b10000000000010000000000001000 f
b10000000000010000000000001000 0"
b0 9"
b110 :"
b10000000000010000000000001000 1"
b0 2"
1C
0Q
0L
0N
b100000011000000100101 D
b100000011000000100101 l
b100000011000000100101 J"
#81
b0 v
#82
b10000000000010000000100000111 ?
b10000000000010000000100000111 T
b10000000000010000000100000111 e
#84
0"
#90
b100000000000000000101 9
b100000000000000000101 c
b100000000000000000101 E"
b100000000000000000101 F"
b0 G"
0)
b10000000000 O
b10000000000 f
b10000000000 0"
0*
b10000000000 ("
b10000000000 1"
0'
b11011110101011011011111011101111 s
b100000001000001 x
b10000000000 2
b10000000000 W
b10000000000 '"
b10000000000 ."
b10000000000010000000100000111 .
b10000000000010000000100000111 A"
b10000000000010000000100000111 M"
b0 O"
b0 )"
b10000000000010000000100000111 N"
0M
0K
b110 ,
b110 [
b110 <"
b10000000000010000000100000111 @
b10000000000010000000100000111 U
b10000000000010000000100000111 r
b10000000000010000000100000111 !"
b10000000000010000000100000111 &"
b10000000000010000000100000111 K"
b10000000000 U"
1"
#91
b10000000000010000000100000111 ;"
#92
b10011111111 ?
b10011111111 T
b10011111111 e
#93
b0 :
b0 u
b0 L"
#96
0"
#102
b100111111 x
b10011111111 .
b10011111111 A"
b10011111111 M"
b100000000000000000101 3"
b100000000000000000101 +"
b100000000000000000101 G
b100000000000000000101 D"
0w
b10011111111 N"
b10000000000000000010100 H
b10000000000000000010100 !
b100000000000000000101 d
b10000000000010000000100000111 V"
b10011111111 @
b10011111111 U
b10011111111 r
b10011111111 !"
b10011111111 &"
b10011111111 K"
b10000000000 1
b10000000000 X
b10000000000 t
1"
#103
b10011111111 ;"
#104
b100000000000000000110 9
b100000000000000000110 c
b100000000000000000110 E"
b100000000000000000110 F"
b100000000000000000110 8
b100000000000000000110 i
b100000000000000000110 C"
b100000000000000000110 j
b100000000000000000110 F
b100000000000000000110 ]
b100000000000000000110 m
b100000000000000000110 5"
#105
b10001110100001110000000000001100 ;
b10001110100001110000000000001100 `
b10001110100001110000000000001100 ,"
b10000000000 v
#108
0"
#114
b0 -
b0 Z
b0 8"
b0 :"
b1100 I"
b1100 >
b1100 z
0}
b100011 7
b100011 |
b0 6
b0 7"
b111 /
b111 6"
b111 @"
b10100 0
b10100 >"
b1100 =
b1100 /"
b100000000000000000110 3"
b100000000000000000110 +"
b100000000000000000110 G
b100000000000000000110 D"
b10001110100001110000000000001100 <
b10001110100001110000000000001100 a
b100000000000000000110 E
b100000000000000000110 ^
b100000000000000000110 H"
b10011111111 V"
b10000000000000000011000 H
b10000000000000000011000 !
b100000000000000000110 d
1"
#115
b10000000000010000000000000000 O
b10000000000010000000000000000 f
b10000000000010000000000000000 0"
b10000000000010000000000000000 1"
b10000000000010000000000000000 2
b10000000000010000000000000000 W
b10000000000010000000000000000 '"
b10000000000010000000000000000 ."
b10000000000010000000000000000 4
b10000000000010000000000000000 g
b10000000000010000000000000000 ""
b10000000000010000000000000000 ("
b10000000000010000000000000000 #"
b10000000000010000000000000000 3
b10000000000010000000000000000 *"
b10000000000010000000000000000 ?"
b10000000000010000000000000000 5
b10000000000010000000000000000 %"
b10000000000010000000000000000 ="
#116
b100000000000000000111 9
b100000000000000000111 c
b100000000000000000111 E"
b111 -
b111 Z
b111 8"
b1100 O
b1100 f
b1100 0"
b100000000000000000111 F"
b111 9"
b0 1"
b1100 2"
b100000000000000000111 8
b100000000000000000111 i
b100000000000000000111 C"
0C
1Q
b100000000000000000111 j
1+
1L
1N
b100000000000000000111 F
b100000000000000000111 ]
b100000000000000000111 m
b100000000000000000111 5"
b100000000000000010010 D
b100000000000000010010 l
b100000000000000010010 J"
#117
0+
b10001010100000000100000 ;
b10001010100000000100000 `
b10001010100000000100000 ,"
#118
b10000000000010000000000001100 ?
b10000000000010000000000001100 T
b10000000000010000000000001100 e
#120
0"
#126
b100000000000000000111 F"
b0 G"
0)
0*
b10000000000010000000000000000 2
b10000000000010000000000000000 W
b10000000000010000000000000000 '"
b10000000000010000000000000000 ."
b101 -
b101 Z
b101 8"
b100000000100000 O
b100000000100000 f
b100000000100000 0"
b10000000000010000000000000000 ("
b0 )"
b101 9"
b100000000100000 I"
b100000000100000 2"
b1100100 s
b100000000000011 x
0'
b0 .
b0 A"
b0 M"
b100000000000000000111 3"
b100000000000000000111 +"
b100000000000000000111 G
b100000000000000000111 D"
b100000 >
b100000 z
1}
b0 7
b0 |
b1000 6
b1000 7"
b101 /
b101 6"
b101 @"
b10 0
b10 >"
b100000000100000 =
b100000000100000 /"
1w
b0 N"
b10000000000000000011100 H
b10000000000000000011100 !
b100000000000000000111 d
b10011111111 V"
b100000000000000000111 E
b100000000000000000111 ^
b100000000000000000111 H"
b10001010100000000100000 <
b10001010100000000100000 a
b10000000000010000000000001100 @
b10000000000010000000000001100 U
b10000000000010000000000001100 r
b10000000000010000000000001100 !"
b10000000000010000000000001100 &"
b10000000000010000000000001100 K"
b10000000000010000000000000000 1
b10000000000010000000000000000 X
b10000000000010000000000000000 t
b111 ,
b111 [
b111 <"
1K
1M
1"
